…
## 
##  Downloading file 1 of 2: `avatar.csv`
##  Downloading file 2 of 2: `scene_description.csv`

tuesdata <- tidytuesdayR::tt_load(2020, week = 33)

## 
##  Downloading file 1 of 2: `avatar.csv`
##  Downloading file 2 of 2: `scene_description.csv`

avatar <- tuesdata$avatar
avatar

## # A tibble: 13,385 x 11
##       id book  book_num chapter chapter_num character full_text character_words
##    <dbl> <chr>    <dbl> <chr>         <dbl> <chr>     <chr>     <chr>          
##  1     1 Water        1 The Bo…           1 Katara    Water. E… Water. Earth. …
##  2     2 Water        1 The Bo…           1 Scene De… As the t… <NA>           
##  3     3 Water        1 The Bo…           1 Sokka     It's not… It's not getti…
##  4     4 Water        1 The Bo…           1 Scene De… "The sho… <NA>           
##  5     5 Water        1 The Bo…           1 Katara    [Happily… Sokka, look!   
##  6     6 Water        1 The Bo…           1 Sokka     [Close-u… Sshh! Katara, …
##  7     7 Water        1 The Bo…           1 Scene De… Behind S… <NA>           
##  8     8 Water        1 The Bo…           1 Katara    [Struggl… But, Sokka! I …
##  9     9 Water        1 The Bo…           1 Scene De… The bubb… <NA>           
## 10    10 Water        1 The Bo…           1 Katara    [Exclaim… Hey!           
## # … with 13,375 more rows, and 3 more variables: writer <chr>, director <chr>,
## #   imdb_rating <dbl>
