…
## --- Compiling #TidyTuesday Information for 2020-01-14 ----

## --- There is 1 file available ---

## --- Starting Download ---

## 
##  Downloading file 1 of 1: `passwords.csv`

## --- Download complete ---

passwords <- tuesdata$passwords
passwords 

## # A tibble: 507 x 9
##     rank password category value time_unit offline_crack_s… rank_alt strength
##    <dbl> <chr>    <chr>    <dbl> <chr>                <dbl>    <dbl>    <dbl>
##  1     1 password passwor…  6.91 years          2.17               1        8
##  2     2 123456   simple-… 18.5  minutes        0.0000111          2        4
##  3     3 12345678 simple-…  1.29 days           0.00111            3        4
##  4     4 1234     simple-… 11.1  seconds        0.000000111        4        4
##  5     5 qwerty   simple-…  3.72 days           0.00321            5        8
##  6     6 12345    simple-…  1.85 minutes        0.00000111         6        4
##  7     7 dragon   animal    3.72 days           0.00321            7        8
##  8     8 baseball sport     6.91 years          2.17               8        4
##  9     9 football sport     6.91 years          2.17               9        7
## 10    10 letmein  passwor…  3.19 months         0.0835            10        8
## # … with 497 more rows, and 1 more variable: font_size <dbl>
…
crack

## # A tibble: 49 x 10
##     rank password category value time_unit offline_crack_s… rank_alt strength
##    <dbl> <chr>    <chr>    <dbl> <chr>                <dbl>    <dbl>    <dbl>
##  1   410 11111    simple-…  1.85 minutes         0.00000111      411        0
##  2    34 test     passwor…  7.92 minutes         0.00000475       34        4
##  3    35 pass     passwor…  7.92 minutes         0.00000475       35        3
##  4    42 love     fluffy    7.92 minutes         0.00000475       42        6
##  5    67 sexy     cool-ma…  7.92 minutes         0.00000475       67        6
##  6   155 mike     name      7.92 minutes         0.00000475      155        6
##  7   169 john     name      7.92 minutes         0.00000475      169        6
##  8   189 blue     fluffy    7.92 minutes         0.00000475      189        6
##  9   198 asdf     simple-…  7.92 minutes         0.00000475      199        6
## 10   216 jack     name      7.92 minutes         0.00000475      217        6
## # … with 39 more rows, and 2 more variables: font_size <dbl>, seconds <dbl>
…
weak

## # A tibble: 25 x 9
##     rank password category value time_unit offline_crack_s… rank_alt strength
##    <dbl> <chr>    <chr>    <dbl> <chr>                <dbl>    <dbl>    <dbl>
##  1    22 superman name      6.91 years                 2.17       22       10
##  2    66 computer nerdy-p…  6.91 years                 2.17       66       10
##  3   111 maverick cool-ma…  6.91 years                 2.17      111       10
##  4   293 nicholas name      6.91 years                 2.17      294       10
##  5   305 qwertyui simple-…  6.91 years                 2.17      306       10
##  6   308 dolphins animal    6.91 years                 2.17      309       10
##  7   381 lifehack cool-ma…  6.91 years                 2.17      382       10
##  8   389 platinum cool-ma…  6.91 years                 2.17      390       10
##  9   398 garfield name      6.91 years                 2.17      399       10
## 10   450 redwings sport     6.91 years                 2.17      452       10
## # … with 15 more rows, and 1 more variable: font_size <dbl>
…
