Avatar Data Set Analysis - A Hugo website
…
Best Writer(s) Award (According to the Viewers)

The writers of this show are some of the best. They are able to write a compelling story line while adding funny jokes and character growth along the way. But who, or which group, has the highest average rated episodes?

writer <- avatar %>%
  select(book_num, chapter_num,writer, imdb_rating) %>%
  group_by(writer) %>%
  summarise(score = mean(imdb_rating)) %>%
  filter(!is.na(score))  %>%
  arrange(score)

writer

## # A tibble: 22 x 2
##    writer                                                                  score
##    <chr>                                                                   <dbl>
##  1 James Eagan                                                              7.8 
##  2 Ian Wilcox                                                               7.9 
##  3 John O'Bryan, Aaron Ehasz                                                7.9 
##  4 Matthew Hubbard                                                          8   
##  5 ‎Michael Dante DiMartino, Bryan Konietzko, Aaron Ehasz, Peter Goldfing…   8.1 
##  6 Nick Malis                                                               8.2 
##  7 John O'Bryan                                                             8.30
##  8 Michael Dante DiMartino, Bryan Konietzko, Aaron Ehasz, Peter Goldfinge…  8.3 
##  9 Joshua Hamilton, Michael Dante DiMartino                                 8.4 
## 10 Katie Mattila                                                            8.5 
## # … with 12 more rows
…
